{
  "files": {
    "main.css": "/static/css/main.c997902f.chunk.css",
    "main.js": "/static/js/main.03928549.chunk.js",
    "main.js.map": "/static/js/main.03928549.chunk.js.map",
    "runtime-main.js": "/static/js/runtime-main.39693e17.js",
    "runtime-main.js.map": "/static/js/runtime-main.39693e17.js.map",
    "static/css/2.f58f87fe.chunk.css": "/static/css/2.f58f87fe.chunk.css",
    "static/js/2.e680c0f4.chunk.js": "/static/js/2.e680c0f4.chunk.js",
    "static/js/2.e680c0f4.chunk.js.map": "/static/js/2.e680c0f4.chunk.js.map",
    "index.html": "/index.html",
    "precache-manifest.0358b7206cfcf33cf6efd75473f2c6fc.js": "/precache-manifest.0358b7206cfcf33cf6efd75473f2c6fc.js",
    "service-worker.js": "/service-worker.js",
    "static/css/2.f58f87fe.chunk.css.map": "/static/css/2.f58f87fe.chunk.css.map",
    "static/css/main.c997902f.chunk.css.map": "/static/css/main.c997902f.chunk.css.map",
    "static/js/2.e680c0f4.chunk.js.LICENSE": "/static/js/2.e680c0f4.chunk.js.LICENSE",
    "static/media/Style.css": "/static/media/segoeui.d9076ed7.ttf",
    "static/media/QRcode.jpeg": "/static/media/QRcode.64440cd8.jpeg",
    "static/media/notifications.css": "/static/media/notification.c0d3c94c.eot"
  },
  "entrypoints": [
    "static/js/runtime-main.39693e17.js",
    "static/css/2.f58f87fe.chunk.css",
    "static/js/2.e680c0f4.chunk.js",
    "static/css/main.c997902f.chunk.css",
    "static/js/main.03928549.chunk.js"
  ]
}